^C:\MPDP2\ZTP\BASECODECOMMENTED-20171222T170408Z-001\BASECODECOMMENTED\GD4CLASSCODE\AIRCRAFT.CPP|C:\MPDP2\ZTP\BASECODECOMMENTED-20171222T170408Z-001\BASECODECOMMENTED\GD4CLASSCODE\ANIMATION.CPP|C:\MPDP2\ZTP\BASECODECOMMENTED-20171222T170408Z-001\BASECODECOMMENTED\GD4CLASSCODE\APPLICATION.CPP|C:\MPDP2\ZTP\BASECODECOMMENTED-20171222T170408Z-001\BASECODECOMMENTED\GD4CLASSCODE\BLOOMEFFECT.CPP|C:\MPDP2\ZTP\BASECODECOMMENTED-20171222T170408Z-001\BASECODECOMMENTED\GD4CLASSCODE\BUTTON.CPP|C:\MPDP2\ZTP\BASECODECOMMENTED-20171222T170408Z-001\BASECODECOMMENTED\GD4CLASSCODE\COMMAND.CPP|C:\MPDP2\ZTP\BASECODECOMMENTED-20171222T170408Z-001\BASECODECOMMENTED\GD4CLASSCODE\COMMANDQUEUE.CPP|C:\MPDP2\ZTP\BASECODECOMMENTED-20171222T170408Z-001\BASECODECOMMENTED\GD4CLASSCODE\COMPONENT.CPP|C:\MPDP2\ZTP\BASECODECOMMENTED-20171222T170408Z-001\BASECODECOMMENTED\GD4CLASSCODE\CONTAINER.CPP|C:\MPDP2\ZTP\BASECODECOMMENTED-20171222T170408Z-001\BASECODECOMMENTED\GD4CLASSCODE\DATATABLES.CPP|C:\MPDP2\ZTP\BASECODECOMMENTED-20171222T170408Z-001\BASECODECOMMENTED\GD4CLASSCODE\EMITTERNODE.CPP|C:\MPDP2\ZTP\BASECODECOMMENTED-20171222T170408Z-001\BASECODECOMMENTED\GD4CLASSCODE\ENTITY.CPP|C:\MPDP2\ZTP\BASECODECOMMENTED-20171222T170408Z-001\BASECODECOMMENTED\GD4CLASSCODE\GAMEOVERSTATE.CPP|C:\MPDP2\ZTP\BASECODECOMMENTED-20171222T170408Z-001\BASECODECOMMENTED\GD4CLASSCODE\GAMESERVER.CPP|C:\MPDP2\ZTP\BASECODECOMMENTED-20171222T170408Z-001\BASECODECOMMENTED\GD4CLASSCODE\GAMESTATE.CPP|C:\MPDP2\ZTP\BASECODECOMMENTED-20171222T170408Z-001\BASECODECOMMENTED\GD4CLASSCODE\KEYBINDING.CPP|C:\MPDP2\ZTP\BASECODECOMMENTED-20171222T170408Z-001\BASECODECOMMENTED\GD4CLASSCODE\LABEL.CPP|C:\MPDP2\ZTP\BASECODECOMMENTED-20171222T170408Z-001\BASECODECOMMENTED\GD4CLASSCODE\MAIN.CPP|C:\MPDP2\ZTP\BASECODECOMMENTED-20171222T170408Z-001\BASECODECOMMENTED\GD4CLASSCODE\MENUSTATE.CPP|C:\MPDP2\ZTP\BASECODECOMMENTED-20171222T170408Z-001\BASECODECOMMENTED\GD4CLASSCODE\MULTIPLAYERGAMESTATE.CPP|C:\MPDP2\ZTP\BASECODECOMMENTED-20171222T170408Z-001\BASECODECOMMENTED\GD4CLASSCODE\MUSICPLAYER.CPP|C:\MPDP2\ZTP\BASECODECOMMENTED-20171222T170408Z-001\BASECODECOMMENTED\GD4CLASSCODE\NETWORKNODE.CPP|C:\MPDP2\ZTP\BASECODECOMMENTED-20171222T170408Z-001\BASECODECOMMENTED\GD4CLASSCODE\PARTICLENODE.CPP|C:\MPDP2\ZTP\BASECODECOMMENTED-20171222T170408Z-001\BASECODECOMMENTED\GD4CLASSCODE\PAUSESTATE.CPP|C:\MPDP2\ZTP\BASECODECOMMENTED-20171222T170408Z-001\BASECODECOMMENTED\GD4CLASSCODE\PICKUP.CPP|C:\MPDP2\ZTP\BASECODECOMMENTED-20171222T170408Z-001\BASECODECOMMENTED\GD4CLASSCODE\PLAYER.CPP|C:\MPDP2\ZTP\BASECODECOMMENTED-20171222T170408Z-001\BASECODECOMMENTED\GD4CLASSCODE\POSTEFFECT.CPP|C:\MPDP2\ZTP\BASECODECOMMENTED-20171222T170408Z-001\BASECODECOMMENTED\GD4CLASSCODE\PROJECTILE.CPP|C:\MPDP2\ZTP\BASECODECOMMENTED-20171222T170408Z-001\BASECODECOMMENTED\GD4CLASSCODE\SCENENODE.CPP|C:\MPDP2\ZTP\BASECODECOMMENTED-20171222T170408Z-001\BASECODECOMMENTED\GD4CLASSCODE\SETTINGSSTATE.CPP|C:\MPDP2\ZTP\BASECODECOMMENTED-20171222T170408Z-001\BASECODECOMMENTED\GD4CLASSCODE\SOUNDNODE.CPP|C:\MPDP2\ZTP\BASECODECOMMENTED-20171222T170408Z-001\BASECODECOMMENTED\GD4CLASSCODE\SOUNDPLAYER.CPP|C:\MPDP2\ZTP\BASECODECOMMENTED-20171222T170408Z-001\BASECODECOMMENTED\GD4CLASSCODE\SPRITENODE.CPP|C:\MPDP2\ZTP\BASECODECOMMENTED-20171222T170408Z-001\BASECODECOMMENTED\GD4CLASSCODE\STATE.CPP|C:\MPDP2\ZTP\BASECODECOMMENTED-20171222T170408Z-001\BASECODECOMMENTED\GD4CLASSCODE\STATESTACK.CPP|C:\MPDP2\ZTP\BASECODECOMMENTED-20171222T170408Z-001\BASECODECOMMENTED\GD4CLASSCODE\TEXTNODE.CPP|C:\MPDP2\ZTP\BASECODECOMMENTED-20171222T170408Z-001\BASECODECOMMENTED\GD4CLASSCODE\TITLESTATE.CPP|C:\MPDP2\ZTP\BASECODECOMMENTED-20171222T170408Z-001\BASECODECOMMENTED\GD4CLASSCODE\UTILITY.CPP|C:\MPDP2\ZTP\BASECODECOMMENTED-20171222T170408Z-001\BASECODECOMMENTED\GD4CLASSCODE\WORLD.CPP
C:\MPDP2\ZTP\BASECODECOMMENTED-20171222T170408Z-001\BASECODECOMMENTED\GD4CLASSCODE\DEBUG\VC141.PDB
C:\MPDP2\ZTP\BASECODECOMMENTED-20171222T170408Z-001\BASECODECOMMENTED\GD4CLASSCODE\DEBUG\VC141.IDB
C:\MPDP2\ZTP\BASECODECOMMENTED-20171222T170408Z-001\BASECODECOMMENTED\GD4CLASSCODE\DEBUG\MULTIPLAYERGAMESTATE.OBJ
C:\MPDP2\ZTP\BASECODECOMMENTED-20171222T170408Z-001\BASECODECOMMENTED\GD4CLASSCODE\DEBUG\MUSICPLAYER.OBJ
C:\MPDP2\ZTP\BASECODECOMMENTED-20171222T170408Z-001\BASECODECOMMENTED\GD4CLASSCODE\DEBUG\NETWORKNODE.OBJ
C:\MPDP2\ZTP\BASECODECOMMENTED-20171222T170408Z-001\BASECODECOMMENTED\GD4CLASSCODE\DEBUG\PARTICLENODE.OBJ
C:\MPDP2\ZTP\BASECODECOMMENTED-20171222T170408Z-001\BASECODECOMMENTED\GD4CLASSCODE\DEBUG\PAUSESTATE.OBJ
C:\MPDP2\ZTP\BASECODECOMMENTED-20171222T170408Z-001\BASECODECOMMENTED\GD4CLASSCODE\DEBUG\PICKUP.OBJ
C:\MPDP2\ZTP\BASECODECOMMENTED-20171222T170408Z-001\BASECODECOMMENTED\GD4CLASSCODE\DEBUG\PLAYER.OBJ
C:\MPDP2\ZTP\BASECODECOMMENTED-20171222T170408Z-001\BASECODECOMMENTED\GD4CLASSCODE\DEBUG\POSTEFFECT.OBJ
C:\MPDP2\ZTP\BASECODECOMMENTED-20171222T170408Z-001\BASECODECOMMENTED\GD4CLASSCODE\DEBUG\PROJECTILE.OBJ
C:\MPDP2\ZTP\BASECODECOMMENTED-20171222T170408Z-001\BASECODECOMMENTED\GD4CLASSCODE\DEBUG\SCENENODE.OBJ
C:\MPDP2\ZTP\BASECODECOMMENTED-20171222T170408Z-001\BASECODECOMMENTED\GD4CLASSCODE\DEBUG\SETTINGSSTATE.OBJ
C:\MPDP2\ZTP\BASECODECOMMENTED-20171222T170408Z-001\BASECODECOMMENTED\GD4CLASSCODE\DEBUG\SOUNDNODE.OBJ
C:\MPDP2\ZTP\BASECODECOMMENTED-20171222T170408Z-001\BASECODECOMMENTED\GD4CLASSCODE\DEBUG\SOUNDPLAYER.OBJ
C:\MPDP2\ZTP\BASECODECOMMENTED-20171222T170408Z-001\BASECODECOMMENTED\GD4CLASSCODE\DEBUG\SPRITENODE.OBJ
C:\MPDP2\ZTP\BASECODECOMMENTED-20171222T170408Z-001\BASECODECOMMENTED\GD4CLASSCODE\DEBUG\STATE.OBJ
C:\MPDP2\ZTP\BASECODECOMMENTED-20171222T170408Z-001\BASECODECOMMENTED\GD4CLASSCODE\DEBUG\STATESTACK.OBJ
C:\MPDP2\ZTP\BASECODECOMMENTED-20171222T170408Z-001\BASECODECOMMENTED\GD4CLASSCODE\DEBUG\TEXTNODE.OBJ
C:\MPDP2\ZTP\BASECODECOMMENTED-20171222T170408Z-001\BASECODECOMMENTED\GD4CLASSCODE\DEBUG\TITLESTATE.OBJ
C:\MPDP2\ZTP\BASECODECOMMENTED-20171222T170408Z-001\BASECODECOMMENTED\GD4CLASSCODE\DEBUG\UTILITY.OBJ
C:\MPDP2\ZTP\BASECODECOMMENTED-20171222T170408Z-001\BASECODECOMMENTED\GD4CLASSCODE\DEBUG\WORLD.OBJ
C:\MPDP2\ZTP\BASECODECOMMENTED-20171222T170408Z-001\BASECODECOMMENTED\GD4CLASSCODE\DEBUG\AIRCRAFT.OBJ
C:\MPDP2\ZTP\BASECODECOMMENTED-20171222T170408Z-001\BASECODECOMMENTED\GD4CLASSCODE\DEBUG\ANIMATION.OBJ
C:\MPDP2\ZTP\BASECODECOMMENTED-20171222T170408Z-001\BASECODECOMMENTED\GD4CLASSCODE\DEBUG\APPLICATION.OBJ
C:\MPDP2\ZTP\BASECODECOMMENTED-20171222T170408Z-001\BASECODECOMMENTED\GD4CLASSCODE\DEBUG\BLOOMEFFECT.OBJ
C:\MPDP2\ZTP\BASECODECOMMENTED-20171222T170408Z-001\BASECODECOMMENTED\GD4CLASSCODE\DEBUG\BUTTON.OBJ
C:\MPDP2\ZTP\BASECODECOMMENTED-20171222T170408Z-001\BASECODECOMMENTED\GD4CLASSCODE\DEBUG\COMMAND.OBJ
C:\MPDP2\ZTP\BASECODECOMMENTED-20171222T170408Z-001\BASECODECOMMENTED\GD4CLASSCODE\DEBUG\COMMANDQUEUE.OBJ
C:\MPDP2\ZTP\BASECODECOMMENTED-20171222T170408Z-001\BASECODECOMMENTED\GD4CLASSCODE\DEBUG\COMPONENT.OBJ
C:\MPDP2\ZTP\BASECODECOMMENTED-20171222T170408Z-001\BASECODECOMMENTED\GD4CLASSCODE\DEBUG\CONTAINER.OBJ
C:\MPDP2\ZTP\BASECODECOMMENTED-20171222T170408Z-001\BASECODECOMMENTED\GD4CLASSCODE\DEBUG\DATATABLES.OBJ
C:\MPDP2\ZTP\BASECODECOMMENTED-20171222T170408Z-001\BASECODECOMMENTED\GD4CLASSCODE\DEBUG\EMITTERNODE.OBJ
C:\MPDP2\ZTP\BASECODECOMMENTED-20171222T170408Z-001\BASECODECOMMENTED\GD4CLASSCODE\DEBUG\ENTITY.OBJ
C:\MPDP2\ZTP\BASECODECOMMENTED-20171222T170408Z-001\BASECODECOMMENTED\GD4CLASSCODE\DEBUG\GAMEOVERSTATE.OBJ
C:\MPDP2\ZTP\BASECODECOMMENTED-20171222T170408Z-001\BASECODECOMMENTED\GD4CLASSCODE\DEBUG\GAMESERVER.OBJ
C:\MPDP2\ZTP\BASECODECOMMENTED-20171222T170408Z-001\BASECODECOMMENTED\GD4CLASSCODE\DEBUG\GAMESTATE.OBJ
C:\MPDP2\ZTP\BASECODECOMMENTED-20171222T170408Z-001\BASECODECOMMENTED\GD4CLASSCODE\DEBUG\KEYBINDING.OBJ
C:\MPDP2\ZTP\BASECODECOMMENTED-20171222T170408Z-001\BASECODECOMMENTED\GD4CLASSCODE\DEBUG\LABEL.OBJ
C:\MPDP2\ZTP\BASECODECOMMENTED-20171222T170408Z-001\BASECODECOMMENTED\GD4CLASSCODE\DEBUG\MAIN.OBJ
C:\MPDP2\ZTP\BASECODECOMMENTED-20171222T170408Z-001\BASECODECOMMENTED\GD4CLASSCODE\DEBUG\MENUSTATE.OBJ
^C:\MPDP2\ZTP\BASECODECOMMENTED-20171222T170408Z-001\BASECODECOMMENTED\GD4CLASSCODE\AIRCRAFT.CPP
C:\MPDP2\ZTP\BASECODECOMMENTED-20171222T170408Z-001\BASECODECOMMENTED\GD4CLASSCODE\DEBUG\VC141.PDB
^C:\MPDP2\ZTP\BASECODECOMMENTED-20171222T170408Z-001\BASECODECOMMENTED\GD4CLASSCODE\ANIMATION.CPP
C:\MPDP2\ZTP\BASECODECOMMENTED-20171222T170408Z-001\BASECODECOMMENTED\GD4CLASSCODE\DEBUG\VC141.PDB
^C:\MPDP2\ZTP\BASECODECOMMENTED-20171222T170408Z-001\BASECODECOMMENTED\GD4CLASSCODE\APPLICATION.CPP
C:\MPDP2\ZTP\BASECODECOMMENTED-20171222T170408Z-001\BASECODECOMMENTED\GD4CLASSCODE\DEBUG\VC141.PDB
^C:\MPDP2\ZTP\BASECODECOMMENTED-20171222T170408Z-001\BASECODECOMMENTED\GD4CLASSCODE\BLOOMEFFECT.CPP
C:\MPDP2\ZTP\BASECODECOMMENTED-20171222T170408Z-001\BASECODECOMMENTED\GD4CLASSCODE\DEBUG\VC141.PDB
^C:\MPDP2\ZTP\BASECODECOMMENTED-20171222T170408Z-001\BASECODECOMMENTED\GD4CLASSCODE\BUTTON.CPP
C:\MPDP2\ZTP\BASECODECOMMENTED-20171222T170408Z-001\BASECODECOMMENTED\GD4CLASSCODE\DEBUG\VC141.PDB
^C:\MPDP2\ZTP\BASECODECOMMENTED-20171222T170408Z-001\BASECODECOMMENTED\GD4CLASSCODE\COMMAND.CPP
C:\MPDP2\ZTP\BASECODECOMMENTED-20171222T170408Z-001\BASECODECOMMENTED\GD4CLASSCODE\DEBUG\VC141.PDB
^C:\MPDP2\ZTP\BASECODECOMMENTED-20171222T170408Z-001\BASECODECOMMENTED\GD4CLASSCODE\COMMANDQUEUE.CPP
C:\MPDP2\ZTP\BASECODECOMMENTED-20171222T170408Z-001\BASECODECOMMENTED\GD4CLASSCODE\DEBUG\VC141.PDB
^C:\MPDP2\ZTP\BASECODECOMMENTED-20171222T170408Z-001\BASECODECOMMENTED\GD4CLASSCODE\COMPONENT.CPP
C:\MPDP2\ZTP\BASECODECOMMENTED-20171222T170408Z-001\BASECODECOMMENTED\GD4CLASSCODE\DEBUG\VC141.PDB
^C:\MPDP2\ZTP\BASECODECOMMENTED-20171222T170408Z-001\BASECODECOMMENTED\GD4CLASSCODE\CONTAINER.CPP
C:\MPDP2\ZTP\BASECODECOMMENTED-20171222T170408Z-001\BASECODECOMMENTED\GD4CLASSCODE\DEBUG\VC141.PDB
^C:\MPDP2\ZTP\BASECODECOMMENTED-20171222T170408Z-001\BASECODECOMMENTED\GD4CLASSCODE\DATATABLES.CPP
C:\MPDP2\ZTP\BASECODECOMMENTED-20171222T170408Z-001\BASECODECOMMENTED\GD4CLASSCODE\DEBUG\VC141.PDB
^C:\MPDP2\ZTP\BASECODECOMMENTED-20171222T170408Z-001\BASECODECOMMENTED\GD4CLASSCODE\EMITTERNODE.CPP
C:\MPDP2\ZTP\BASECODECOMMENTED-20171222T170408Z-001\BASECODECOMMENTED\GD4CLASSCODE\DEBUG\VC141.PDB
^C:\MPDP2\ZTP\BASECODECOMMENTED-20171222T170408Z-001\BASECODECOMMENTED\GD4CLASSCODE\ENTITY.CPP
C:\MPDP2\ZTP\BASECODECOMMENTED-20171222T170408Z-001\BASECODECOMMENTED\GD4CLASSCODE\DEBUG\VC141.PDB
^C:\MPDP2\ZTP\BASECODECOMMENTED-20171222T170408Z-001\BASECODECOMMENTED\GD4CLASSCODE\GAMEOVERSTATE.CPP
C:\MPDP2\ZTP\BASECODECOMMENTED-20171222T170408Z-001\BASECODECOMMENTED\GD4CLASSCODE\DEBUG\VC141.PDB
^C:\MPDP2\ZTP\BASECODECOMMENTED-20171222T170408Z-001\BASECODECOMMENTED\GD4CLASSCODE\GAMESERVER.CPP
C:\MPDP2\ZTP\BASECODECOMMENTED-20171222T170408Z-001\BASECODECOMMENTED\GD4CLASSCODE\DEBUG\VC141.PDB
^C:\MPDP2\ZTP\BASECODECOMMENTED-20171222T170408Z-001\BASECODECOMMENTED\GD4CLASSCODE\GAMESTATE.CPP
C:\MPDP2\ZTP\BASECODECOMMENTED-20171222T170408Z-001\BASECODECOMMENTED\GD4CLASSCODE\DEBUG\VC141.PDB
^C:\MPDP2\ZTP\BASECODECOMMENTED-20171222T170408Z-001\BASECODECOMMENTED\GD4CLASSCODE\KEYBINDING.CPP
C:\MPDP2\ZTP\BASECODECOMMENTED-20171222T170408Z-001\BASECODECOMMENTED\GD4CLASSCODE\DEBUG\VC141.PDB
^C:\MPDP2\ZTP\BASECODECOMMENTED-20171222T170408Z-001\BASECODECOMMENTED\GD4CLASSCODE\LABEL.CPP
C:\MPDP2\ZTP\BASECODECOMMENTED-20171222T170408Z-001\BASECODECOMMENTED\GD4CLASSCODE\DEBUG\VC141.PDB
^C:\MPDP2\ZTP\BASECODECOMMENTED-20171222T170408Z-001\BASECODECOMMENTED\GD4CLASSCODE\MAIN.CPP
C:\MPDP2\ZTP\BASECODECOMMENTED-20171222T170408Z-001\BASECODECOMMENTED\GD4CLASSCODE\DEBUG\VC141.PDB
^C:\MPDP2\ZTP\BASECODECOMMENTED-20171222T170408Z-001\BASECODECOMMENTED\GD4CLASSCODE\MENUSTATE.CPP
C:\MPDP2\ZTP\BASECODECOMMENTED-20171222T170408Z-001\BASECODECOMMENTED\GD4CLASSCODE\DEBUG\VC141.PDB
^C:\MPDP2\ZTP\BASECODECOMMENTED-20171222T170408Z-001\BASECODECOMMENTED\GD4CLASSCODE\MULTIPLAYERGAMESTATE.CPP
C:\MPDP2\ZTP\BASECODECOMMENTED-20171222T170408Z-001\BASECODECOMMENTED\GD4CLASSCODE\DEBUG\VC141.PDB
^C:\MPDP2\ZTP\BASECODECOMMENTED-20171222T170408Z-001\BASECODECOMMENTED\GD4CLASSCODE\MUSICPLAYER.CPP
C:\MPDP2\ZTP\BASECODECOMMENTED-20171222T170408Z-001\BASECODECOMMENTED\GD4CLASSCODE\DEBUG\VC141.PDB
^C:\MPDP2\ZTP\BASECODECOMMENTED-20171222T170408Z-001\BASECODECOMMENTED\GD4CLASSCODE\NETWORKNODE.CPP
C:\MPDP2\ZTP\BASECODECOMMENTED-20171222T170408Z-001\BASECODECOMMENTED\GD4CLASSCODE\DEBUG\VC141.PDB
^C:\MPDP2\ZTP\BASECODECOMMENTED-20171222T170408Z-001\BASECODECOMMENTED\GD4CLASSCODE\PARTICLENODE.CPP
C:\MPDP2\ZTP\BASECODECOMMENTED-20171222T170408Z-001\BASECODECOMMENTED\GD4CLASSCODE\DEBUG\VC141.PDB
^C:\MPDP2\ZTP\BASECODECOMMENTED-20171222T170408Z-001\BASECODECOMMENTED\GD4CLASSCODE\PAUSESTATE.CPP
C:\MPDP2\ZTP\BASECODECOMMENTED-20171222T170408Z-001\BASECODECOMMENTED\GD4CLASSCODE\DEBUG\VC141.PDB
^C:\MPDP2\ZTP\BASECODECOMMENTED-20171222T170408Z-001\BASECODECOMMENTED\GD4CLASSCODE\PICKUP.CPP
C:\MPDP2\ZTP\BASECODECOMMENTED-20171222T170408Z-001\BASECODECOMMENTED\GD4CLASSCODE\DEBUG\VC141.PDB
^C:\MPDP2\ZTP\BASECODECOMMENTED-20171222T170408Z-001\BASECODECOMMENTED\GD4CLASSCODE\PLAYER.CPP
C:\MPDP2\ZTP\BASECODECOMMENTED-20171222T170408Z-001\BASECODECOMMENTED\GD4CLASSCODE\DEBUG\VC141.PDB
^C:\MPDP2\ZTP\BASECODECOMMENTED-20171222T170408Z-001\BASECODECOMMENTED\GD4CLASSCODE\POSTEFFECT.CPP
C:\MPDP2\ZTP\BASECODECOMMENTED-20171222T170408Z-001\BASECODECOMMENTED\GD4CLASSCODE\DEBUG\VC141.PDB
^C:\MPDP2\ZTP\BASECODECOMMENTED-20171222T170408Z-001\BASECODECOMMENTED\GD4CLASSCODE\PROJECTILE.CPP
C:\MPDP2\ZTP\BASECODECOMMENTED-20171222T170408Z-001\BASECODECOMMENTED\GD4CLASSCODE\DEBUG\VC141.PDB
^C:\MPDP2\ZTP\BASECODECOMMENTED-20171222T170408Z-001\BASECODECOMMENTED\GD4CLASSCODE\SCENENODE.CPP
C:\MPDP2\ZTP\BASECODECOMMENTED-20171222T170408Z-001\BASECODECOMMENTED\GD4CLASSCODE\DEBUG\VC141.PDB
^C:\MPDP2\ZTP\BASECODECOMMENTED-20171222T170408Z-001\BASECODECOMMENTED\GD4CLASSCODE\SETTINGSSTATE.CPP
C:\MPDP2\ZTP\BASECODECOMMENTED-20171222T170408Z-001\BASECODECOMMENTED\GD4CLASSCODE\DEBUG\VC141.PDB
^C:\MPDP2\ZTP\BASECODECOMMENTED-20171222T170408Z-001\BASECODECOMMENTED\GD4CLASSCODE\SOUNDNODE.CPP
C:\MPDP2\ZTP\BASECODECOMMENTED-20171222T170408Z-001\BASECODECOMMENTED\GD4CLASSCODE\DEBUG\VC141.PDB
^C:\MPDP2\ZTP\BASECODECOMMENTED-20171222T170408Z-001\BASECODECOMMENTED\GD4CLASSCODE\SOUNDPLAYER.CPP
C:\MPDP2\ZTP\BASECODECOMMENTED-20171222T170408Z-001\BASECODECOMMENTED\GD4CLASSCODE\DEBUG\VC141.PDB
^C:\MPDP2\ZTP\BASECODECOMMENTED-20171222T170408Z-001\BASECODECOMMENTED\GD4CLASSCODE\SPRITENODE.CPP
C:\MPDP2\ZTP\BASECODECOMMENTED-20171222T170408Z-001\BASECODECOMMENTED\GD4CLASSCODE\DEBUG\VC141.PDB
^C:\MPDP2\ZTP\BASECODECOMMENTED-20171222T170408Z-001\BASECODECOMMENTED\GD4CLASSCODE\STATE.CPP
C:\MPDP2\ZTP\BASECODECOMMENTED-20171222T170408Z-001\BASECODECOMMENTED\GD4CLASSCODE\DEBUG\VC141.PDB
^C:\MPDP2\ZTP\BASECODECOMMENTED-20171222T170408Z-001\BASECODECOMMENTED\GD4CLASSCODE\STATESTACK.CPP
C:\MPDP2\ZTP\BASECODECOMMENTED-20171222T170408Z-001\BASECODECOMMENTED\GD4CLASSCODE\DEBUG\VC141.PDB
^C:\MPDP2\ZTP\BASECODECOMMENTED-20171222T170408Z-001\BASECODECOMMENTED\GD4CLASSCODE\TEXTNODE.CPP
C:\MPDP2\ZTP\BASECODECOMMENTED-20171222T170408Z-001\BASECODECOMMENTED\GD4CLASSCODE\DEBUG\VC141.PDB
^C:\MPDP2\ZTP\BASECODECOMMENTED-20171222T170408Z-001\BASECODECOMMENTED\GD4CLASSCODE\TITLESTATE.CPP
C:\MPDP2\ZTP\BASECODECOMMENTED-20171222T170408Z-001\BASECODECOMMENTED\GD4CLASSCODE\DEBUG\VC141.PDB
^C:\MPDP2\ZTP\BASECODECOMMENTED-20171222T170408Z-001\BASECODECOMMENTED\GD4CLASSCODE\UTILITY.CPP
C:\MPDP2\ZTP\BASECODECOMMENTED-20171222T170408Z-001\BASECODECOMMENTED\GD4CLASSCODE\DEBUG\VC141.PDB
^C:\MPDP2\ZTP\BASECODECOMMENTED-20171222T170408Z-001\BASECODECOMMENTED\GD4CLASSCODE\WORLD.CPP
C:\MPDP2\ZTP\BASECODECOMMENTED-20171222T170408Z-001\BASECODECOMMENTED\GD4CLASSCODE\DEBUG\VC141.PDB
C:\MPDP2\ZTP\BASECODECOMMENTED-20171222T170408Z-001\BASECODECOMMENTED\GD4CLASSCODE\DEBUG\VC141.IDB
C:\MPDP2\ZTP\BASECODECOMMENTED-20171222T170408Z-001\BASECODECOMMENTED\GD4CLASSCODE\DEBUG\WORLD.OBJ
